n = 500
1)	191	256
2)	430	421
3)	248	255
4)	235	147
5)	478	432
6)	262	335
7)	241	248
8)	245	261
9)	467	81
10)	313	355
11)	162	252
12)	219	156
13)	95	375
14)	469	61
15)	191	333
16)	427	489
17)	76	34
18)	250	263
19)	33	300
20)	20	59
21)	260	232
22)	241	119
23)	378	374
24)	7	415
25)	477	68
26)	54	127
27)	242	235
28)	423	347
29)	79	244
30)	247	249
31)	492	422
32)	257	263
33)	490	487
34)	238	239
35)	252	344
36)	256	258
37)	183	378
38)	226	238
39)	148	104
40)	256	270
41)	276	474
42)	232	392
43)	241	238
44)	174	68
45)	232	249
46)	89	291
47)	132	12
48)	246	247
49)	61	378
50)	178	181
51)	248	260
52)	174	154
53)	230	253
54)	253	239
55)	13	255
56)	388	355
57)	227	484
58)	65	466
59)	320	388
60)	84	487
61)	426	260
62)	260	268
63)	409	248
64)	352	252
65)	433	333
66)	190	282
67)	375	352
68)	375	97
69)	18	252
70)	394	471
71)	266	176
72)	253	123
73)	51	137
74)	109	28
75)	468	143
76)	361	123
77)	451	216
78)	246	227
79)	265	256
80)	268	249
81)	70	193
82)	236	136
83)	256	253
84)	249	249
85)	140	244
86)	470	293
87)	247	260
88)	53	303
89)	229	243
90)	254	241
91)	455	263
92)	28	164
93)	432	227
94)	452	115
95)	256	256
96)	244	243
97)	471	5
98)	299	28
99)	297	343
100)	449	149
101)	46	155
102)	249	65
103)	283	464
104)	305	461
105)	468	400
106)	67	216
107)	336	255
108)	65	338
109)	226	239
110)	240	101
111)	218	467
112)	240	260
113)	46	480
114)	12	195
115)	258	248
116)	251	260
117)	226	241
118)	250	244
119)	107	397
120)	2	147
121)	368	343
122)	440	424
123)	469	424
124)	44	384
125)	87	289
126)	116	43
127)	239	250
128)	447	449
129)	261	249
130)	87	115
131)	251	255
132)	20	370
133)	286	120
134)	79	205
135)	187	24
136)	124	22
137)	188	151
138)	255	259
139)	352	262
140)	243	262
141)	467	408
142)	183	414
143)	253	258
144)	253	233
145)	130	287
146)	333	5
147)	249	244
148)	246	241
149)	168	30
150)	121	440
151)	420	440
152)	264	212
153)	238	260
154)	56	50
155)	120	285
156)	276	260
157)	234	35
158)	418	363
159)	391	312
160)	237	230
161)	249	235
162)	227	235
163)	460	237
164)	269	269
165)	111	339
166)	195	236
167)	343	433
168)	495	27
169)	11	114
170)	381	328
171)	157	119
172)	249	251
173)	150	42
174)	266	250
175)	263	237
176)	229	245
177)	7	238
178)	257	436
179)	287	71
180)	66	143
181)	245	230
182)	380	468
183)	301	423
184)	63	114
185)	179	49
186)	381	57
187)	25	83
188)	147	347
189)	337	430
190)	97	374
191)	253	242
192)	234	252
193)	48	157
194)	289	490
195)	142	5
196)	410	72
197)	262	259
198)	313	6
199)	246	261
200)	356	85
201)	288	303
202)	417	205
203)	227	265
204)	269	254
205)	378	353
206)	340	147
207)	145	377
208)	241	382
209)	15	22
210)	63	321
211)	255	236
212)	465	241
213)	263	301
214)	20	129
215)	387	282
216)	65	439
217)	108	393
218)	246	242
219)	320	444
220)	244	262
221)	382	160
222)	343	247
223)	162	53
224)	253	171
225)	408	205
226)	41	453
227)	10	292
228)	249	266
229)	257	248
230)	467	66
231)	249	250
232)	252	64
233)	254	255
234)	257	237
235)	0	88
236)	247	239
237)	392	148
238)	496	93
239)	30	177
240)	216	173
241)	242	267
242)	255	265
243)	117	458
244)	254	249
245)	65	250
246)	163	75
247)	251	234
248)	334	24
249)	234	144
250)	263	257
251)	250	74
252)	23	212
253)	268	149
254)	332	83
255)	193	13
256)	185	395
257)	405	353
258)	244	242
259)	188	215
260)	378	128
261)	256	23
262)	274	265
263)	97	480
264)	246	231
265)	239	413
266)	33	17
267)	436	424
268)	259	263
269)	207	145
270)	396	217
271)	125	427
272)	435	217
273)	486	455
274)	264	251
275)	211	21
276)	53	154
277)	246	259
278)	351	63
279)	186	463
280)	113	135
281)	251	243
282)	267	249
283)	249	261
284)	240	232
285)	254	270
286)	162	27
287)	56	57
288)	56	366
289)	265	371
290)	336	367
291)	13	46
292)	329	318
293)	413	397
294)	235	242
295)	247	455
296)	26	144
297)	233	252
298)	469	397
299)	242	247
300)	259	242
301)	485	293
302)	41	370
303)	60	423
304)	254	245
305)	400	393
306)	73	460
307)	453	94
308)	268	258
309)	480	22
310)	116	79
311)	165	263
312)	161	262
313)	432	246
314)	430	106
315)	266	148
316)	189	459
317)	495	100
318)	385	307
319)	156	90
320)	353	454
321)	391	438
322)	249	257
323)	35	7
324)	260	251
325)	278	263
326)	388	148
327)	25	47
328)	258	240
329)	408	160
330)	241	255
331)	248	242
332)	273	254
333)	253	251
334)	263	247
335)	115	91
336)	235	259
337)	398	435
338)	248	244
339)	47	67
340)	435	418
341)	481	238
342)	252	235
343)	433	493
344)	475	230
345)	259	241
346)	239	246
347)	276	78
348)	246	262
349)	172	419
350)	265	246
351)	349	311
352)	255	255
353)	493	325
354)	265	244
355)	263	264
356)	30	315
357)	372	56
358)	176	84
359)	254	266
360)	23	295
361)	277	256
362)	335	186
363)	242	223
364)	271	123
365)	361	231
366)	238	440
367)	237	66
368)	260	223
369)	247	253
370)	403	62
371)	88	348
372)	243	246
373)	235	248
374)	281	255
375)	17	416
376)	310	376
377)	260	265
378)	325	350
379)	242	263
380)	264	244
381)	466	439
382)	352	122
383)	243	242
384)	200	257
385)	349	229
386)	124	422
387)	247	246
388)	363	338
389)	266	244
390)	229	247
391)	305	296
392)	222	395
393)	278	333
394)	229	354
395)	238	255
396)	148	427
397)	258	265
398)	395	300
399)	361	350
400)	368	243
401)	469	91
402)	306	253
403)	45	446
404)	409	214
405)	90	346
406)	475	450
407)	138	126
408)	243	244
409)	244	253
410)	369	238
411)	242	253
412)	245	251
413)	220	149
414)	371	71
415)	336	394
416)	296	247
417)	244	266
418)	5	363
419)	53	42
420)	275	429
421)	261	231
422)	245	240
423)	237	259
424)	148	328
425)	87	470
426)	243	264
427)	243	250
428)	454	491
429)	461	172
430)	226	247
431)	238	273
432)	275	213
433)	442	140
434)	118	191
435)	178	401
436)	275	205
437)	240	240
438)	234	242
439)	354	198
440)	242	250
441)	14	64
442)	115	353
443)	483	494
444)	256	257
445)	392	413
446)	110	63
447)	142	373
448)	151	113
449)	122	283
450)	2	459
451)	17	286
452)	196	77
453)	245	247
454)	482	327
455)	248	263
456)	251	240
457)	253	265
458)	253	439
459)	497	310
460)	251	262
461)	218	146
462)	239	252
463)	134	48
464)	23	12
465)	247	252
466)	247	232
467)	25	490
468)	41	451
469)	286	169
470)	255	246
471)	256	252
472)	412	314
473)	115	494
474)	484	24
475)	486	420
476)	340	215
477)	178	161
478)	304	33
479)	191	57
480)	28	467
481)	315	249
482)	257	233
483)	150	382
484)	340	123
485)	402	191
486)	448	255
487)	244	225
488)	229	275
489)	249	247
490)	216	52
491)	414	126
492)	58	324
493)	182	117
494)	272	0
495)	174	236
496)	253	255
497)	101	435
498)	203	49
499)	440	369
500)	87	203
